%YAML 1.1
%TAG !u! tag:unity3d.com,2011:
--- !u!74 &7400000
AnimationClip:
  m_ObjectHideFlags: 0
  m_PrefabParentObject: {fileID: 0}
  m_PrefabInternal: {fileID: 0}
  m_Name: UI_GadgetGet_02_01
  serializedVersion: 6
  m_Legacy: 0
  m_Compressed: 0
  m_UseHighQualityCurve: 1
  m_RotationCurves: []
  m_CompressedRotationCurves: []
  m_EulerCurves: []
  m_PositionCurves: []
  m_ScaleCurves:
  - curve:
      serializedVersion: 2
      m_Curve:
      - serializedVersion: 2
        time: 0
        value: {x: 0.01, y: 0.01, z: 0}
        inSlope: {x: 0, y: 0, z: 0}
        outSlope: {x: 3.040678, y: 3.040678, z: 0}
        tangentMode: 0
      - serializedVersion: 2
        time: 0.98333335
        value: {x: 3, y: 3, z: 0}
        inSlope: {x: 3.040678, y: 3.040678, z: 0}
        outSlope: {x: Infinity, y: Infinity, z: 0}
        tangentMode: 0
      - serializedVersion: 2
        time: 1
        value: {x: 0.01, y: 0.01, z: 0}
        inSlope: {x: -179.40018, y: -179.40018, z: 0}
        outSlope: {x: 3.040678, y: 3.040678, z: 0}
        tangentMode: 0
      m_PreInfinity: 2
      m_PostInfinity: 2
      m_RotationOrder: 4
    path: Mask/Sprite_Flash_01
  - curve:
      serializedVersion: 2
      m_Curve:
      - serializedVersion: 2
        time: 0
        value: {x: 0.77016956, y: 0.77016956, z: 0}
        inSlope: {x: 3.0406783, y: 3.0406783, z: 0}
        outSlope: {x: 3.0406778, y: 3.0406778, z: 0}
        tangentMode: 0
      - serializedVersion: 2
        time: 0.73333335
        value: {x: 3, y: 3, z: 0}
        inSlope: {x: 3.0406778, y: 3.0406778, z: 0}
        outSlope: {x: Infinity, y: Infinity, z: 0}
        tangentMode: 0
      - serializedVersion: 2
        time: 0.75
        value: {x: 0.01, y: 0.01, z: 0}
        inSlope: {x: -179.40018, y: -179.40018, z: 0}
        outSlope: {x: 3.0406783, y: 3.0406783, z: 0}
        tangentMode: 0
      - serializedVersion: 2
        time: 1
        value: {x: 0.77016956, y: 0.77016956, z: 0}
        inSlope: {x: 3.0406783, y: 3.0406783, z: 0}
        outSlope: {x: 3.0406778, y: 3.0406778, z: 0}
        tangentMode: 0
      m_PreInfinity: 2
      m_PostInfinity: 2
      m_RotationOrder: 4
    path: Mask/Sprite_Flash_02
  - curve:
      serializedVersion: 2
      m_Curve:
      - serializedVersion: 2
        time: 0
        value: {x: 1.5303391, y: 1.5303391, z: 0}
        inSlope: {x: 3.0406783, y: 3.0406783, z: 0}
        outSlope: {x: 3.0406775, y: 3.0406775, z: 0}
        tangentMode: 0
      - serializedVersion: 2
        time: 0.48333335
        value: {x: 3, y: 3, z: 0}
        inSlope: {x: 3.0406775, y: 3.0406775, z: 0}
        outSlope: {x: Infinity, y: Infinity, z: 0}
        tangentMode: 0
      - serializedVersion: 2
        time: 0.5
        value: {x: 0.01, y: 0.01, z: 0}
        inSlope: {x: -179.40018, y: -179.40018, z: 0}
        outSlope: {x: 3.0406783, y: 3.0406783, z: 0}
        tangentMode: 0
      - serializedVersion: 2
        time: 1
        value: {x: 1.5303391, y: 1.5303391, z: 0}
        inSlope: {x: 3.0406783, y: 3.0406783, z: 0}
        outSlope: {x: 3.0406775, y: 3.0406775, z: 0}
        tangentMode: 0
      m_PreInfinity: 2
      m_PostInfinity: 2
      m_RotationOrder: 4
    path: Mask/Sprite_Flash_03
  - curve:
      serializedVersion: 2
      m_Curve:
      - serializedVersion: 2
        time: 0
        value: {x: 2.290509, y: 2.290509, z: 0}
        inSlope: {x: 3.0406787, y: 3.0406787, z: 0}
        outSlope: {x: 3.0406756, y: 3.0406756, z: 0}
        tangentMode: 0
      - serializedVersion: 2
        time: 0.23333335
        value: {x: 3, y: 3, z: 0}
        inSlope: {x: 3.0406756, y: 3.0406756, z: 0}
        outSlope: {x: Infinity, y: Infinity, z: 0}
        tangentMode: 0
      - serializedVersion: 2
        time: 0.25
        value: {x: 0.01, y: 0.01, z: 0}
        inSlope: {x: -179.40018, y: -179.40018, z: 0}
        outSlope: {x: 3.0406787, y: 3.0406787, z: 0}
        tangentMode: 0
      - serializedVersion: 2
        time: 1
        value: {x: 2.290509, y: 2.290509, z: 0}
        inSlope: {x: 3.0406787, y: 3.0406787, z: 0}
        outSlope: {x: 3.0406756, y: 3.0406756, z: 0}
        tangentMode: 0
      m_PreInfinity: 2
      m_PostInfinity: 2
      m_RotationOrder: 4
    path: Mask/Sprite_Flash_04
  m_FloatCurves: []
  m_PPtrCurves:
  - curve:
    - time: 0
      value: {fileID: 21300000, guid: 566b03168a5bc0642b733aaa6a5d982a, type: 3}
    - time: 0.25
      value: {fileID: 21300000, guid: 469216105a639cc4ebaef3f7afc5d8cf, type: 3}
    - time: 0.5
      value: {fileID: 21300000, guid: 566b03168a5bc0642b733aaa6a5d982a, type: 3}
    - time: 0.75
      value: {fileID: 21300000, guid: 469216105a639cc4ebaef3f7afc5d8cf, type: 3}
    attribute: m_Sprite
    path: Mask
    classID: 114
    script: {fileID: -765806418, guid: f70555f144d8491a825f0804e09c671c, type: 3}
  - curve:
    - time: 0
      value: {fileID: 21300000, guid: 8890d57a0048a1e48812455fb5040a5e, type: 3}
    - time: 0.25
      value: {fileID: 21300000, guid: 8c79b4742fb5f0146b243bab5c80623d, type: 3}
    - time: 0.5
      value: {fileID: 21300000, guid: 8890d57a0048a1e48812455fb5040a5e, type: 3}
    - time: 0.75
      value: {fileID: 21300000, guid: 8c79b4742fb5f0146b243bab5c80623d, type: 3}
    attribute: m_Sprite
    path: Sprite_Frame
    classID: 114
    script: {fileID: -765806418, guid: f70555f144d8491a825f0804e09c671c, type: 3}
  m_SampleRate: 60
  m_WrapMode: 0
  m_Bounds:
    m_Center: {x: 0, y: 0, z: 0}
    m_Extent: {x: 0, y: 0, z: 0}
  m_ClipBindingConstant:
    genericBindings:
    - serializedVersion: 2
      path: 1268045858
      attribute: 3
      script: {fileID: 0}
      typeID: 4
      customType: 0
      isPPtrCurve: 0
    - serializedVersion: 2
      path: 3533539736
      attribute: 3
      script: {fileID: 0}
      typeID: 4
      customType: 0
      isPPtrCurve: 0
    - serializedVersion: 2
      path: 2778380558
      attribute: 3
      script: {fileID: 0}
      typeID: 4
      customType: 0
      isPPtrCurve: 0
    - serializedVersion: 2
      path: 1006513325
      attribute: 3
      script: {fileID: 0}
      typeID: 4
      customType: 0
      isPPtrCurve: 0
    - serializedVersion: 2
      path: 3747441678
      attribute: 2015549526
      script: {fileID: -765806418, guid: f70555f144d8491a825f0804e09c671c, type: 3}
      typeID: 114
      customType: 0
      isPPtrCurve: 1
    - serializedVersion: 2
      path: 1916394724
      attribute: 2015549526
      script: {fileID: -765806418, guid: f70555f144d8491a825f0804e09c671c, type: 3}
      typeID: 114
      customType: 0
      isPPtrCurve: 1
    pptrCurveMapping:
    - {fileID: 21300000, guid: 566b03168a5bc0642b733aaa6a5d982a, type: 3}
    - {fileID: 21300000, guid: 469216105a639cc4ebaef3f7afc5d8cf, type: 3}
    - {fileID: 21300000, guid: 566b03168a5bc0642b733aaa6a5d982a, type: 3}
    - {fileID: 21300000, guid: 469216105a639cc4ebaef3f7afc5d8cf, type: 3}
    - {fileID: 21300000, guid: 8890d57a0048a1e48812455fb5040a5e, type: 3}
    - {fileID: 21300000, guid: 8c79b4742fb5f0146b243bab5c80623d, type: 3}
    - {fileID: 21300000, guid: 8890d57a0048a1e48812455fb5040a5e, type: 3}
    - {fileID: 21300000, guid: 8c79b4742fb5f0146b243bab5c80623d, type: 3}
  m_AnimationClipSettings:
    serializedVersion: 2
    m_AdditiveReferencePoseClip: {fileID: 0}
    m_AdditiveReferencePoseTime: 0
    m_StartTime: 0
    m_StopTime: 1
    m_OrientationOffsetY: 0
    m_Level: 0
    m_CycleOffset: 0
    m_HasAdditiveReferencePose: 0
    m_LoopTime: 1
    m_LoopBlend: 0
    m_LoopBlendOrientation: 0
    m_LoopBlendPositionY: 0
    m_LoopBlendPositionXZ: 0
    m_KeepOriginalOrientation: 0
    m_KeepOriginalPositionY: 1
    m_KeepOriginalPositionXZ: 0
    m_HeightFromFeet: 0
    m_Mirror: 0
  m_EditorCurves:
  - curve:
      serializedVersion: 2
      m_Curve:
      - serializedVersion: 2
        time: 0
        value: 0.01
        inSlope: 0
        outSlope: 3.040678
        tangentMode: 69
      - serializedVersion: 2
        time: 0.98333335
        value: 3
        inSlope: 3.040678
        outSlope: Infinity
        tangentMode: 101
      - serializedVersion: 2
        time: 1
        value: 0.01
        inSlope: -179.40018
        outSlope: 3.040678
        tangentMode: 69
      m_PreInfinity: 2
      m_PostInfinity: 2
      m_RotationOrder: 4
    attribute: m_LocalScale.x
    path: Mask/Sprite_Flash_01
    classID: 224
    script: {fileID: 0}
  - curve:
      serializedVersion: 2
      m_Curve:
      - serializedVersion: 2
        time: 0
        value: 0.01
        inSlope: 0
        outSlope: 3.040678
        tangentMode: 69
      - serializedVersion: 2
        time: 0.98333335
        value: 3
        inSlope: 3.040678
        outSlope: Infinity
        tangentMode: 101
      - serializedVersion: 2
        time: 1
        value: 0.01
        inSlope: -179.40018
        outSlope: 3.040678
        tangentMode: 69
      m_PreInfinity: 2
      m_PostInfinity: 2
      m_RotationOrder: 4
    attribute: m_LocalScale.y
    path: Mask/Sprite_Flash_01
    classID: 224
    script: {fileID: 0}
  - curve:
      serializedVersion: 2
      m_Curve: []
      m_PreInfinity: 2
      m_PostInfinity: 2
      m_RotationOrder: 4
    attribute: m_LocalScale.z
    path: Mask/Sprite_Flash_01
    classID: 224
    script: {fileID: 0}
  - curve:
      serializedVersion: 2
      m_Curve:
      - serializedVersion: 2
        time: 0
        value: 0.77016956
        inSlope: 3.0406783
        outSlope: 3.0406778
        tangentMode: 69
      - serializedVersion: 2
        time: 0.73333335
        value: 3
        inSlope: 3.0406778
        outSlope: Infinity
        tangentMode: 101
      - serializedVersion: 2
        time: 0.75
        value: 0.01
        inSlope: -179.40018
        outSlope: 3.0406783
        tangentMode: 69
      - serializedVersion: 2
        time: 1
        value: 0.77016956
        inSlope: 3.0406783
        outSlope: 3.0406778
        tangentMode: 69
      m_PreInfinity: 2
      m_PostInfinity: 2
      m_RotationOrder: 4
    attribute: m_LocalScale.x
    path: Mask/Sprite_Flash_02
    classID: 224
    script: {fileID: 0}
  - curve:
      serializedVersion: 2
      m_Curve:
      - serializedVersion: 2
        time: 0
        value: 0.77016956
        inSlope: 3.0406783
        outSlope: 3.0406778
        tangentMode: 69
      - serializedVersion: 2
        time: 0.73333335
        value: 3
        inSlope: 3.0406778
        outSlope: Infinity
        tangentMode: 101
      - serializedVersion: 2
        time: 0.75
        value: 0.01
        inSlope: -179.40018
        outSlope: 3.0406783
        tangentMode: 69
      - serializedVersion: 2
        time: 1
        value: 0.77016956
        inSlope: 3.0406783
        outSlope: 3.0406778
        tangentMode: 69
      m_PreInfinity: 2
      m_PostInfinity: 2
      m_RotationOrder: 4
    attribute: m_LocalScale.y
    path: Mask/Sprite_Flash_02
    classID: 224
    script: {fileID: 0}
  - curve:
      serializedVersion: 2
      m_Curve: []
      m_PreInfinity: 2
      m_PostInfinity: 2
      m_RotationOrder: 4
    attribute: m_LocalScale.z
    path: Mask/Sprite_Flash_02
    classID: 224
    script: {fileID: 0}
  - curve:
      serializedVersion: 2
      m_Curve:
      - serializedVersion: 2
        time: 0
        value: 1.5303391
        inSlope: 3.0406783
        outSlope: 3.0406775
        tangentMode: 69
      - serializedVersion: 2
        time: 0.48333335
        value: 3
        inSlope: 3.0406775
        outSlope: Infinity
        tangentMode: 101
      - serializedVersion: 2
        time: 0.5
        value: 0.01
        inSlope: -179.40018
        outSlope: 3.0406783
        tangentMode: 69
      - serializedVersion: 2
        time: 1
        value: 1.5303391
        inSlope: 3.0406783
        outSlope: 3.0406775
        tangentMode: 69
      m_PreInfinity: 2
      m_PostInfinity: 2
      m_RotationOrder: 4
    attribute: m_LocalScale.x
    path: Mask/Sprite_Flash_03
    classID: 224
    script: {fileID: 0}
  - curve:
      serializedVersion: 2
      m_Curve:
      - serializedVersion: 2
        time: 0
        value: 1.5303391
        inSlope: 3.0406783
        outSlope: 3.0406775
        tangentMode: 69
      - serializedVersion: 2
        time: 0.48333335
        value: 3
        inSlope: 3.0406775
        outSlope: Infinity
        tangentMode: 101
      - serializedVersion: 2
        time: 0.5
        value: 0.01
        inSlope: -179.40018
        outSlope: 3.0406783
        tangentMode: 69
      - serializedVersion: 2
        time: 1
        value: 1.5303391
        inSlope: 3.0406783
        outSlope: 3.0406775
        tangentMode: 69
      m_PreInfinity: 2
      m_PostInfinity: 2
      m_RotationOrder: 4
    attribute: m_LocalScale.y
    path: Mask/Sprite_Flash_03
    classID: 224
    script: {fileID: 0}
  - curve:
      serializedVersion: 2
      m_Curve: []
      m_PreInfinity: 2
      m_PostInfinity: 2
      m_RotationOrder: 4
    attribute: m_LocalScale.z
    path: Mask/Sprite_Flash_03
    classID: 224
    script: {fileID: 0}
  - curve:
      serializedVersion: 2
      m_Curve:
      - serializedVersion: 2
        time: 0
        value: 2.290509
        inSlope: 3.0406787
        outSlope: 3.0406756
        tangentMode: 69
      - serializedVersion: 2
        time: 0.23333335
        value: 3
        inSlope: 3.0406756
        outSlope: Infinity
        tangentMode: 101
      - serializedVersion: 2
        time: 0.25
        value: 0.01
        inSlope: -179.40018
        outSlope: 3.0406787
        tangentMode: 69
      - serializedVersion: 2
        time: 1
        value: 2.290509
        inSlope: 3.0406787
        outSlope: 3.0406756
        tangentMode: 69
      m_PreInfinity: 2
      m_PostInfinity: 2
      m_RotationOrder: 4
    attribute: m_LocalScale.x
    path: Mask/Sprite_Flash_04
    classID: 224
    script: {fileID: 0}
  - curve:
      serializedVersion: 2
      m_Curve:
      - serializedVersion: 2
        time: 0
        value: 2.290509
        inSlope: 3.0406787
        outSlope: 3.0406756
        tangentMode: 69
      - serializedVersion: 2
        time: 0.23333335
        value: 3
        inSlope: 3.0406756
        outSlope: Infinity
        tangentMode: 101
      - serializedVersion: 2
        time: 0.25
        value: 0.01
        inSlope: -179.40018
        outSlope: 3.0406787
        tangentMode: 69
      - serializedVersion: 2
        time: 1
        value: 2.290509
        inSlope: 3.0406787
        outSlope: 3.0406756
        tangentMode: 69
      m_PreInfinity: 2
      m_PostInfinity: 2
      m_RotationOrder: 4
    attribute: m_LocalScale.y
    path: Mask/Sprite_Flash_04
    classID: 224
    script: {fileID: 0}
  - curve:
      serializedVersion: 2
      m_Curve: []
      m_PreInfinity: 2
      m_PostInfinity: 2
      m_RotationOrder: 4
    attribute: m_LocalScale.z
    path: Mask/Sprite_Flash_04
    classID: 224
    script: {fileID: 0}
  m_EulerEditorCurves: []
  m_HasGenericRootTransform: 0
  m_HasMotionFloatCurves: 0
  m_GenerateMotionCurves: 0
  m_Events: []
